/* XPM */
static char * close_xpm[] = {
"16 16 2 1",
" 	c black",
".	c None",
"                ",
" .............. ",
" .............. ",
" ..  ......  .. ",
" ..   ....   .. ",
" ...   ..   ... ",
" ....      .... ",
" .....    ..... ",
" .....    ..... ",
" ....      .... ",
" ...   ..   ... ",
" ..   ....   .. ",
" ..  ......  .. ",
" .............. ",
" .............. ",
"                "};
